<svg xmlns="http://www.w3.org/2000/svg" xmlns:xlink="http://www.w3.org/1999/xlink" width="43" height="43" viewBox="0 0 43 43">
    <defs>
        <path id="a" d="M.003 19.692V.003h22.535v19.69H.003z"/>
    </defs>
    <g fill="none" fill-rule="evenodd" transform="translate(2 2)">
        <circle cx="19.546" cy="19.546" r="19.546" stroke="#CFD8DC" stroke-width="3" opacity=".6"/>
        <g transform="translate(8.205 9.23)">
            <mask id="b" fill="#fff">
                <use xlink:href="#a"/>
            </mask>
            <path fill="#CFD8DC" d="M21.994 19.653l-6.941-3.435L15 .645c0-.364.368-.603.686-.446l6.58 3.258a.494.494 0 0 1 .272.444v15.4c0 .288-.292.477-.544.352" mask="url(#b)" opacity=".208"/>
            <path fill="#CFD8DC" d="M15.053 16.218L7.54 12.499 14.773.24a.471.471 0 0 1 .616-.188l6.672 3.304a.5.5 0 0 1 .201.7l-7.21 12.162" mask="url(#b)" opacity=".406"/>
            <path fill="#CFD8DC" d="M15.053 16.218L7.54 12.499.654.955C.462.634.796.253 1.126.416L7.54 3.591l7.513 12.627" mask="url(#b)" opacity=".792"/>
            <path fill="#CFD8DC" d="M6.996 19.653L.215 16.296A.392.392 0 0 1 0 15.944V.46C0 .182.283 0 .527.12L7.54 3.59v15.71c0 .288-.292.477-.544.352" mask="url(#b)"/>
        </g>
    </g>
</svg>
